…
```r
#make a longer dataset, one row per person, yet to be counted up
haireye_untidy %>% 
  pivot_longer(cols      = -hair,
               names_to  = "eye",
               values_to = "n") %>%
  uncount(n)
```

```
## # A tibble: 179 x 2
##    hair  eye       
##    <fct> <chr>     
##  1 black brown_eyed
##  2 black brown_eyed
##  3 black brown_eyed
##  4 black red_eyed  
##  5 black red_eyed  
##  6 black black_eyed
##  7 black black_eyed
##  8 black black_eyed
##  9 blue  brown_eyed
## 10 blue  brown_eyed
## # ... with 169 more rows
```
…
